{"response":

{"status":"ok","userTier":"developer","total":2162459,"startIndex":1,"pageSize":10,"currentPage":1,"pages":216246,"orderBy":"newest","results":

      [{"id":"football/live/2019/dec/28/newcastle-v-everton-watford-v-aston-villa-and-more-clockwatch-live","type":"liveblog","sectionId":"football","sectionName":"Football","webPublicationDate":"2019-12-28T15:38:59Z","webTitle":"Newcastle v Everton, Watford v Aston Villa and more: clockwatch – live!","webUrl":"https://www.theguardian.com/football/live/2019/dec/28/newcastle-v-everton-watford-v-aston-villa-and-more-clockwatch-live","apiUrl":"https://content.guardianapis.com/football/live/2019/dec/28/newcastle-v-everton-watford-v-aston-villa-and-more-clockwatch-live","isHosted":false,"pillarId":"pillar/sport","pillarName":"Sport"},{"id":"sport/live/2019/dec/28/south-africa-v-england-first-test-day-three-live","type":"liveblog","sectionId":"sport","sectionName":"Sport","webPublicationDate":"2019-12-28T15:34:10Z","webTitle":"South Africa set England 376 to win: first Test, day three – live!","webUrl":"https://www.theguardian.com/sport/live/2019/dec/28/south-africa-v-england-first-test-day-three-live","apiUrl":"https://content.guardianapis.com/sport/live/2019/dec/28/south-africa-v-england-first-test-day-three-live","isHosted":false,"pillarId":"pillar/sport","pillarName":"Sport"},{"id":"uk-news/2019/dec/28/edinburgh-hogmanay-social-curfew-police","type":"article","sectionId":"uk-news","sectionName":"UK news","webPublicationDate":"2019-12-28T15:32:12Z","webTitle":"Confusion grows over Edinburgh’s Hogmanay ‘social curfew’","webUrl":"https://www.theguardian.com/uk-news/2019/dec/28/edinburgh-hogmanay-social-curfew-police","apiUrl":"https://content.guardianapis.com/uk-news/2019/dec/28/edinburgh-hogmanay-social-curfew-police","isHosted":false,"pillarId":"pillar/news","pillarName":"News"},{"id":"commentisfree/2019/dec/28/gavin-and-stacey-what-occurrin-weve-all-gone-back-to-barry-island","type":"article","sectionId":"commentisfree","sectionName":"Opinion","webPublicationDate":"2019-12-28T15:30:12Z","webTitle":"Gavin and Stacey: what’s occurrin’? We’ve all gone back to Barry Island| Rebecca Nicholson","webUrl":"https://www.theguardian.com/commentisfree/2019/dec/28/gavin-and-stacey-what-occurrin-weve-all-gone-back-to-barry-island","apiUrl":"https://content.guardianapis.com/commentisfree/2019/dec/28/gavin-and-stacey-what-occurrin-weve-all-gone-back-to-barry-island","isHosted":false,"pillarId":"pillar/opinion","pillarName":"Opinion"},{"id":"artanddesign/2019/dec/28/goya-paintings-many-not-work-of-spanish-master-studio-assistants","type":"article","sectionId":"artanddesign","sectionName":"Art and design","webPublicationDate":"2019-12-28T15:05:11Z","webTitle":"Dozens of ‘Goyas’ are not by the master’s own hand, claims art historian","webUrl":"https://www.theguardian.com/artanddesign/2019/dec/28/goya-paintings-many-not-work-of-spanish-master-studio-assistants","apiUrl":"https://content.guardianapis.com/artanddesign/2019/dec/28/goya-paintings-many-not-work-of-spanish-master-studio-assistants","isHosted":false,"pillarId":"pillar/arts","pillarName":"Arts"},{"id":"lifeandstyle/2019/dec/28/michael-rosen-family-history-jewish-culture","type":"article","sectionId":"lifeandstyle","sectionName":"Life and style","webPublicationDate":"2019-12-28T15:00:11Z","webTitle":"Michael Rosen: ‘Stories hung in the air about great-aunts and uncles who’d gone’","webUrl":"https://www.theguardian.com/lifeandstyle/2019/dec/28/michael-rosen-family-history-jewish-culture","apiUrl":"https://content.guardianapis.com/lifeandstyle/2019/dec/28/michael-rosen-family-history-jewish-culture","isHosted":false,"pillarId":"pillar/lifestyle","pillarName":"Lifestyle"},{"id":"film/2019/dec/28/long-days-journey-into-night-review-bi-gan","type":"article","sectionId":"film","sectionName":"Film","webPublicationDate":"2019-12-28T15:00:11Z","webTitle":"Long Day’s Journey Into Night review – some kind of sorcery at work","webUrl":"https://www.theguardian.com/film/2019/dec/28/long-days-journey-into-night-review-bi-gan","apiUrl":"https://content.guardianapis.com/film/2019/dec/28/long-days-journey-into-night-review-bi-gan","isHosted":false,"pillarId":"pillar/arts","pillarName":"Arts"},{"id":"football/live/2019/dec/28/brighton-v-bournemouth-premier-league-live","type":"liveblog","sectionId":"football","sectionName":"Football","webPublicationDate":"2019-12-28T14:57:56Z","webTitle":"Brighton 2-0 Bournemouth: Premier League – as it happened","webUrl":"https://www.theguardian.com/football/live/2019/dec/28/brighton-v-bournemouth-premier-league-live","apiUrl":"https://content.guardianapis.com/football/live/2019/dec/28/brighton-v-bournemouth-premier-league-live","isHosted":false,"pillarId":"pillar/sport","pillarName":"Sport"},{"id":"uk-news/2019/dec/28/government-exposes-addresses-of-new-year-honours-recipients","type":"article","sectionId":"uk-news","sectionName":"UK news","webPublicationDate":"2019-12-28T14:52:46Z","webTitle":"Government exposes addresses of new year honours recipients","webUrl":"https://www.theguardian.com/uk-news/2019/dec/28/government-exposes-addresses-of-new-year-honours-recipients","apiUrl":"https://content.guardianapis.com/uk-news/2019/dec/28/government-exposes-addresses-of-new-year-honours-recipients","isHosted":false,"pillarId":"pillar/news","pillarName":"News"},{"id":"commentisfree/2019/dec/28/year-in-patriarchy-arwa-mahdawi","type":"article","sectionId":"commentisfree","sectionName":"Opinion","webPublicationDate":"2019-12-28T14:00:10Z","webTitle":"The year in patriarchy 2019: from Epstein conspiracy theories to Japanese high heels | Arwa Mahdawi","webUrl":"https://www.theguardian.com/commentisfree/2019/dec/28/year-in-patriarchy-arwa-mahdawi","apiUrl":"https://content.guardianapis.com/commentisfree/2019/dec/28/year-in-patriarchy-arwa-mahdawi","isHosted":false,"pillarId":"pillar/opinion","pillarName":"Opinion"}]}}